…
``` r
# Then we run the imputation itself with the recommended number of components.
# In contrast to the original R Opus, which used ncp = 2, this function
# recommends we use ncp = 5.

missing_data_imputed <- imputeFAMD(missing_data_example, ncp = 5)

missing_data_imputed$completeObs %>%
  as_tibble()
```

```
## # A tibble: 336 x 23
##    NJ    ProductName NR    Red_berry Dark_berry   Jam Dried_fruit
##    <fct> <fct>       <fct>     <dbl>      <dbl> <dbl>       <dbl>
##  1 1331  C_MERLOT    7          4.66       5.8   2.1         4.7 
##  2 1331  C_SYRAH     7          5.6        1.9   3.9         1.2 
##  3 1331  C_ZINFANDEL 7          4.9        2.6   1.4         5.9 
##  4 1331  C_REFOSCO   7          5          1.9   7.8         0.6 
##  5 1331  I__MERLOT   7          3.3        7.2   0.5         5.8 
##  6 1331  I_SYRAH     7          3.96       4.90  4.23        2.81
##  7 1331  I_PRIMITIVO 7          2.9        5.1   8.7         0.4 
##  8 1331  I_REFOSCO   7          3.2        6     4           0.7 
##  9 1400  C_MERLOT    7          0.1        0.1   0.2         2.9 
## 10 1400  C_SYRAH     7          1.6        0.7   0           6.4 
## # i 326 more rows
## # i 16 more variables: Artificial_frui <dbl>, Chocolate <dbl>, Vanilla <dbl>,
## #   Oak <dbl>, Burned <dbl>, Leather <dbl>, Earthy <dbl>, Spicy <dbl>,
## #   Pepper <dbl>, Grassy <dbl>, Medicinal <dbl>, `Band-aid` <dbl>, Sour <dbl>,
## #   Bitter <dbl>, Alcohol <dbl>, Astringent <dbl>
```

We see that values have been filled in.  Let's compare them to our original data visually.


``` r
descriptive_data
```

```
## # A tibble: 336 x 23
##    NJ    ProductName NR    Red_berry Dark_berry   Jam Dried_fruit
##    <fct> <fct>       <fct>     <dbl>      <dbl> <dbl>       <dbl>
##  1 1331  C_MERLOT    7           5.1        5.8   2.1         4.7
##  2 1331  C_SYRAH     7           5.6        1.9   3.9         1.2
##  3 1331  C_ZINFANDEL 7           4.9        2.6   1.4         5.9
##  4 1331  C_REFOSCO   7           5          1.9   7.8         0.6
##  5 1331  I_MERLOT    7           3.3        7.2   0.5         5.8
##  6 1331  I_SYRAH     7           5.7        3.6   8.7         1.9
##  7 1331  I_PRIMITIVO 7           2.9        5.1   8.7         0.4
##  8 1331  I_REFOSCO   7           3.2        6     4           0.7
##  9 1400  C_MERLOT    7           0.1        0.1   0.2         2.9
## 10 1400  C_SYRAH     7           1.6        0.7   0           6.4
## # i 326 more rows
## # i 16 more variables: Artificial_frui <dbl>, Chocolate <dbl>, Vanilla <dbl>,
## #   Oak <dbl>, Burned <dbl>, Leather <dbl>, Earthy <dbl>, Spicy <dbl>,
## #   Pepper <dbl>, Grassy <dbl>, Medicinal <dbl>, `Band-aid` <dbl>, Sour <dbl>,
## #   Bitter <dbl>, Alcohol <dbl>, Astringent <dbl>
```
…
