…
distance_rankings
```

```
## # A tibble: 28 x 3
##    items                      desc_distance_rank mds_distance_rank
##    <chr>                                   <int>             <int>
##  1 C_MERLOT <--> C_REFOSCO                     6                 5
##  2 C_MERLOT <--> C_SYRAH                       4                 1
##  3 C_MERLOT <--> C_ZINFANDEL                   1                 4
##  4 C_MERLOT <--> I_MERLOT                      3                11
##  5 C_MERLOT <--> I_PRIMITIVO                  13                16
##  6 C_MERLOT <--> I_REFOSCO                    16                18
##  7 C_MERLOT <--> I_SYRAH                      20                20
##  8 C_REFOSCO <--> C_SYRAH                      8                 9
##  9 C_REFOSCO <--> C_ZINFANDEL                 11                10
## 10 C_REFOSCO <--> I_MERLOT                    18                17
## # i 18 more rows
```
…
Let's take a look and see if a non-metric MDS can do better.

## Non-metric MDS

In non-metric MDS, we assume that the observed distances are non-metric: they only represent an *ordination* of the distances among the items.  An example would be, in our actual data, that the observed distances represent estimates or opinions from our panelists:


``` r
tidy_descriptive_distances %>%
  arrange(distance)
```

```
## # A tibble: 28 x 3
##    item1       item2       distance
##    <fct>       <fct>          <dbl>
##  1 C_MERLOT    C_ZINFANDEL     3.91
##  2 I_MERLOT    I_REFOSCO       4.45
##  3 C_MERLOT    I_MERLOT        4.50
##  4 C_MERLOT    C_SYRAH         4.53
##  5 C_SYRAH     C_ZINFANDEL     4.82
##  6 C_MERLOT    C_REFOSCO       5.08
##  7 C_SYRAH     I_REFOSCO       5.41
##  8 C_REFOSCO   C_SYRAH         5.47
##  9 C_ZINFANDEL I_PRIMITIVO     5.54
## 10 I_PRIMITIVO I_SYRAH         5.75
## # i 18 more rows
```
The closest samples are `C_MERLOT` and `C_ZINFANDEL`, and the second closest are `I_MERLOT` and `I_REFOSCO`.  If our distances are merely ordinations, we can only say that--we can't compare the actual "differences of distances" as we could if these were metric.  In the metric case, we could subtract the distance between `C_MERLOT` and `C_ZINFANDEL` and `I_MERLOT` and `I_REFOSCO` ($\approx4.5-3.9\approx0.6$) and say that the difference between those distances is larger than that between the second and third smallest distances (`I_MERLOT` and `I_REFOSCO` vs `C_MERLOT` and `I_MERLOT`, which is $\approx4.5-4.45\approx0$).  So we could say something like "the difference between the two closest pairs of samples is quite large, but the difference between the next two closest is approximately the same".  We can't do that with an ordination, because we only know the relative ranks:


``` r
tidy_descriptive_distances %>%
  transmute(item1, item2, 
            distance_rank = dense_rank(distance)) %>%
  arrange(distance_rank)
```

```
## # A tibble: 28 x 3
##    item1       item2       distance_rank
##    <fct>       <fct>               <int>
##  1 C_MERLOT    C_ZINFANDEL             1
##  2 I_MERLOT    I_REFOSCO               2
##  3 C_MERLOT    I_MERLOT                3
##  4 C_MERLOT    C_SYRAH                 4
##  5 C_SYRAH     C_ZINFANDEL             5
##  6 C_MERLOT    C_REFOSCO               6
##  7 C_SYRAH     I_REFOSCO               7
##  8 C_REFOSCO   C_SYRAH                 8
##  9 C_ZINFANDEL I_PRIMITIVO             9
## 10 I_PRIMITIVO I_SYRAH                10
## # i 18 more rows
```
…
It certainly doesn't seem like we have!  Yikes!  I think a higher-dimensional solution is certainly required to adequately capture the configuration of these products.

## Wrap up

To be fair, saying "Yikes!" is probably a little overblown.  If we examined the tables above I used to compare the observed and estimated ranks in more detail, we'd see that the variation is quite small, for example, for the non-metric data:


```
## # A tibble: 28 x 4
##    observed_rank                distance_rank mds_rank                     match
##    <chr>                                <int> <chr>                        <lgl>
##  1 C_MERLOT <--> C_ZINFANDEL                1 C_MERLOT <--> C_ZINFANDEL    TRUE 
##  2 I_MERLOT <--> I_REFOSCO                  2 C_SYRAH <--> C_ZINFANDEL     FALSE
##  3 C_MERLOT <--> I_MERLOT                   3 C_MERLOT <--> C_SYRAH        FALSE
##  4 C_MERLOT <--> C_SYRAH                    4 I_MERLOT <--> I_REFOSCO      FALSE
##  5 C_SYRAH <--> C_ZINFANDEL                 5 C_MERLOT <--> I_MERLOT       FALSE
##  6 C_MERLOT <--> C_REFOSCO                  6 C_MERLOT <--> C_REFOSCO      TRUE 
##  7 C_SYRAH <--> I_REFOSCO                   7 C_ZINFANDEL <--> I_PRIMITIVO FALSE
##  8 C_REFOSCO <--> C_SYRAH                   8 C_SYRAH <--> I_MERLOT        FALSE
##  9 C_ZINFANDEL <--> I_PRIMITIVO             9 C_REFOSCO <--> I_MERLOT      FALSE
## 10 I_PRIMITIVO <--> I_SYRAH                10 C_REFOSCO <--> C_ZINFANDEL   FALSE
## # i 18 more rows
```
…
