…
This tells us what books have the highest count of "x"; looking at the plot, we can see that indeed "x" is closest to those novels... for the most part.  Let's keep digging a little bit.  If we look at, for example, `profiles of future (clark)`, we can see that while it is important for "x", "x" is not so important for it...


```r
(author["profiles of future (clark)", ] / sum(author["profiles of future (clark)", ])) %>%
  round(5) %>%
  as_tibble(rownames = "letter") %>%
  arrange(value)
```

```
## # A tibble: 26 x 2
##    letter   value
##    <chr>    <dbl>
##  1 j      0.00093
##  2 q      0.0012 
##  3 x      0.002  
##  4 z      0.00266
##  5 k      0.0052 
##  6 v      0.0119 
##  7 w      0.0141 
##  8 p      0.0143 
##  9 y      0.0189 
## 10 b      0.0201 
## # i 16 more rows
```

But for `drifters (michener)`, maybe the story is different.


```r
(author["drifters (michener)", ] / sum(author["drifters (michener)", ])) %>%
  round(5) %>%
  as_tibble(rownames = "letter") %>%
  arrange(value)
```

```
## # A tibble: 26 x 2
##    letter   value
##    <chr>    <dbl>
##  1 q      0.0006 
##  2 z      0.00075
##  3 j      0.0012 
##  4 x      0.0021 
##  5 v      0.009  
##  6 k      0.00915
##  7 b      0.0163 
##  8 g      0.0204 
##  9 y      0.0205 
## 10 p      0.0210 
## # i 16 more rows
```
…
Now even though we cannot directly interpret proximity of books to letters, we can say that the fact that `sound and fury 7 (faulkner)` is strongly separated by Dimension 2 is probably due to an unusual proportion of "y" in the text: and we'd be right!  It is the 11th most common letter in that row, as compared to many of the other examples we looked at above (scroll up and check to see if I'm right!).  


```r
(author["sound and fury 7 (faulkner)", ] / sum(author["sound and fury 7 (faulkner)", ])) %>%
  round(5) %>%
  as_tibble(rownames = "letter") %>%
  arrange(-value) %>%
  print(n = 12)
```

```
## # A tibble: 26 x 2
##    letter  value
##    <chr>   <dbl>
##  1 e      0.111 
##  2 t      0.0976
##  3 o      0.0856
##  4 a      0.0786
##  5 i      0.0755
##  6 n      0.0684
##  7 s      0.0659
##  8 h      0.0582
##  9 r      0.0471
## 10 l      0.0407
## 11 y      0.0407
## 12 u      0.0359
## # i 14 more rows
```
…
