Chapter 2 Analysis of Variance | The R Opus v2
…
da_aov_res <-
  nested_AOV_res %>%
  mutate(aov_summaries = map(.x = anova_res, 
                             .f = ~broom::tidy(.x))) %>%
  
  # unnest() does the reverse of nest(): it takes a nested subtable and expands it
  # back into the data frame, duplicating all of the classifying variables
  # necessary to uniquely identify it.
  
  unnest(aov_summaries) %>%
  select(-data, -anova_res)

da_aov_res

## # A tibble: 140 × 7
##    descriptor term              df  sumsq meansq statistic   p.value
##    <chr>      <chr>          <dbl>  <dbl>  <dbl>     <dbl>     <dbl>
##  1 Red_berry  NJ                13 598.    46.0     12.8    9.35e-20
##  2 Red_berry  ProductName        7  73.2   10.5      2.91   6.52e- 3
##  3 Red_berry  NR                 2   2.86   1.43     0.398  6.72e- 1
##  4 Red_berry  NJ:ProductName    91 659.     7.24     2.02   3.18e- 5
##  5 Red_berry  NJ:NR             26  97.2    3.74     1.04   4.16e- 1
##  6 Red_berry  ProductName:NR    14  52.2    3.73     1.04   4.15e- 1
##  7 Red_berry  Residuals        182 653.     3.59    NA     NA       
##  8 Dark_berry NJ                13 813.    62.5     15.5    2.50e-23
##  9 Dark_berry ProductName        7 126.    18.0      4.47   1.28e- 4
## 10 Dark_berry NR                 2  18.9    9.47     2.35   9.81e- 2
## # ℹ 130 more rows
…
# Then we'll take our original models and only run HSD on the significant ones

hsd_tbl <- 
  nested_AOV_res %>%
  filter(descriptor %in% significant_descriptors) %>%
  mutate(hsd_res = map(anova_res, ~tidy_hsd(.x))) %>%
  select(-data, -anova_res) %>%
  unnest(hsd_res)

hsd_tbl

## # A tibble: 104 × 12
##    descriptor wine        rating   std     r    se   Min   Max   Q25   Q50   Q75
##    <chr>      <chr>        <dbl> <dbl> <int> <dbl> <dbl> <dbl> <dbl> <dbl> <dbl>
##  1 Dark_berry I_SYRAH       4.48  3.24    42 0.310     0   9.9 1.58   4.1   7.82
##  2 Dark_berry I_PRIMITIVO   3.38  3.03    42 0.310     0   9.6 0.55   2.8   5.38
##  3 Dark_berry C_MERLOT      3.05  2.60    42 0.310     0   8.3 0.65   2.3   5.08
##  4 Dark_berry C_REFOSCO     2.46  2.48    42 0.310     0   8.6 0.4    1.7   4.22
##  5 Dark_berry C_SYRAH       2.93  2.91    42 0.310     0   8.9 0.7    2.05  4.15
##  6 Dark_berry C_ZINFANDEL   3.06  2.68    42 0.310     0   9.2 0.75   2.6   4.7 
##  7 Dark_berry I_MERLOT      2.35  2.21    42 0.310     0   7.2 0.325  1.65  4.12
##  8 Dark_berry I_REFOSCO     3.01  2.36    42 0.310     0   8.5 1.1    2.4   5.02
##  9 Jam        I_PRIMITIVO   3.61  3.08    42 0.248     0   9.8 0.95   2.5   6.35
## 10 Jam        I_SYRAH       3.10  2.93    42 0.248     0   9.5 0.475  1.9   5.15
## # ℹ 94 more rows
## # ℹ 1 more variable: groups <chr>
…
library(brms)
library(tidybayes)

Then we’re going to use the approach to setting up ANOVA-like models in Stan that A. Solomon Kurz details in his excellent online companion to Kruschke’s Doing Bayesian Data Analysis Kruschke (2014).

We are first going to apply this approach to a single outcome: Bitter. We know that above we found a significant difference between Bitter ratings for the various wines. Let’s let a Bayesian approach explore that result for us.

# Let's make a less unwieldy tibble to work with

bayes_data <- 
  descriptive_data_tidy %>%
  filter(descriptor == "Bitter")
bayes_data

## # A tibble: 336 × 5
##    NJ    ProductName NR    descriptor rating
##    <fct> <fct>       <fct> <chr>       <dbl>
##  1 1331  C_MERLOT    7     Bitter        5.9
##  2 1331  C_SYRAH     7     Bitter        5.2
##  3 1331  C_ZINFANDEL 7     Bitter        3.5
##  4 1331  C_REFOSCO   7     Bitter        3  
##  5 1331  I_MERLOT    7     Bitter        1.9
##  6 1331  I_SYRAH     7     Bitter        9.8
##  7 1331  I_PRIMITIVO 7     Bitter        2.9
##  8 1331  I_REFOSCO   7     Bitter        0.2
##  9 1400  C_MERLOT    7     Bitter        0.6
## 10 1400  C_SYRAH     7     Bitter        2.9
## # ℹ 326 more rows
…
You’ll note that there are a lot of variables. We are estimating (as I understand it) deflections from the grand mean for all of the levels of all of our main effects. We can summarize these using the posterior_summary() function:

posterior_summary(b_bitter) %>%
  as_tibble(rownames = "parameter") %>%
  mutate(across(where(is.numeric), ~round(., 2)))

## # A tibble: 145 × 5
##    parameter                    Estimate Est.Error  Q2.5 Q97.5
##    <chr>                           <dbl>     <dbl> <dbl> <dbl>
##  1 b_Intercept                      3.5       0.95  1.79  5.45
##  2 sd_NJ__Intercept                 2.21      0.5   1.49  3.42
##  3 sd_NJ:ProductName__Intercept     0.22      0.14  0.02  0.55
##  4 sd_NR__Intercept                 0.74      1.15  0.03  4.04
##  5 sd_ProductName__Intercept        0.42      0.23  0.07  0.97
##  6 sigma                            1.92      0.08  1.78  2.09
##  7 r_NJ[1331,Intercept]            -0.44      0.72 -1.85  1.03
##  8 r_NJ[1400,Intercept]            -1.78      0.73 -3.22 -0.32
##  9 r_NJ[1401,Intercept]             2.34      0.72  0.96  3.8 
## 10 r_NJ[1402,Intercept]             2.31      0.72  0.92  3.74
## # ℹ 135 more rows
…
