Chapter 5 Canonical Variate Analysis | The R Opus v2
…
ggsave(filename = "~/my_new_plot.png", 
       plot = p, height = 6, width = 8, 
       units = "in", scale = 1.2)

5.3 Plotting uncertainty in CVA

One of the advantages of CVA is that it is based on raw data, which PCA is typically not [an exception is so-called Tucker-1 PCA; Dettmar, Peltier, and Schlich (2020)]. So far we’ve only visualized the group means for the wines in our CVA plots, but we can investigate the $scores data frame in the CVA results to see the raw observation scores, and use them to plot confidence ellipses.

cva_res_oneway$scores %>% 
  as_tibble()

## # A tibble: 336 × 8
##    ProductName   Can1   Can2   Can3   Can4     Can5   Can6    Can7
##    <fct>        <dbl>  <dbl>  <dbl>  <dbl>    <dbl>  <dbl>   <dbl>
##  1 C_MERLOT     0.378  1.23  -2.16   1.33   1.25    -0.177 -1.38  
##  2 C_SYRAH     -1.43  -0.233  0.130 -1.97  -0.577   -1.42   0.478 
##  3 C_ZINFANDEL -0.499 -0.177 -1.58   1.38  -0.00298 -0.807 -0.0839
##  4 C_REFOSCO   -0.352  3.45   0.848 -2.56  -1.22    -0.368  0.740 
##  5 I_MERLOT     0.882 -1.40   2.42   0.508  0.715    0.535  0.153 
##  6 I_SYRAH     -2.34   2.32   0.679 -1.85   0.0947  -1.17  -1.81  
##  7 I_PRIMITIVO -3.27   1.06   0.445 -0.766 -1.51    -1.44   1.60  
##  8 I_REFOSCO    0.881 -0.986  1.14  -2.60  -0.0514  -1.25   1.56  
##  9 C_MERLOT     2.39   1.16   0.794  0.678 -0.340   -0.469  1.06  
## 10 C_SYRAH      1.95   0.928 -1.09   0.847  1.01     0.644 -0.155 
## # ℹ 326 more rows

cva_res$scores %>%
  as_tibble()

## # A tibble: 336 × 10
##    ProductName NJ    NR      Can1   Can2   Can3    Can4    Can5   Can6    Can7
##    <fct>       <fct> <fct>  <dbl>  <dbl>  <dbl>   <dbl>   <dbl>  <dbl>   <dbl>
##  1 C_MERLOT    1331  7     -0.478  1.14  -0.778 -0.633  -2.51   -1.06   2.46  
##  2 C_SYRAH     1331  7      3.53   0.810  4.58  -2.30    0.403  -2.94   0.312 
##  3 C_ZINFANDEL 1331  7     -0.551  0.137 -0.675  0.0954 -1.37   -2.47   0.864 
##  4 C_REFOSCO   1331  7      2.19   5.17   4.06  -1.05    1.40   -0.988  0.209 
##  5 I_MERLOT    1331  7     -3.59  -1.79   4.29   0.980  -2.15   -0.613 -0.0964
##  6 I_SYRAH     1331  7      5.89   2.58   4.66  -0.838  -0.0944 -1.30   3.14  
##  7 I_PRIMITIVO 1331  7      5.28   2.20   3.59   1.27    2.51   -2.61  -1.12  
##  8 I_REFOSCO   1331  7     -1.73  -0.271  5.68  -0.973   1.75   -1.96  -0.896 
##  9 C_MERLOT    1400  7     -3.98   2.69  -0.498  0.0528 -0.804  -1.02  -1.57  
## 10 C_SYRAH     1400  7     -3.49   1.72  -1.04  -1.39   -2.38   -0.338  0.563 
## # ℹ 326 more rows
…
