Chapter 1 Data import and set up | “The R Opus v2”
…
Here we have consumer acceptance testing data on the same 8 wines from the DA. The rows look like they represent consumers, identified by the Judge column. Let’s check to see if they’re all unique:

consumer_data %>%
# The sort = TRUE argument would put anyone with multiple rows at the top
  count(Judge, sort = TRUE)

## # A tibble: 106 × 2
##    Judge     n
##    <dbl> <int>
##  1     1     1
##  2     2     1
##  3     3     1
##  4     4     1
##  5     5     1
##  6     6     1
##  7     7     1
##  8     8     1
##  9     9     1
## 10    10     1
## # ℹ 96 more rows
…
1.2 Wrangling/tidying data

Whenever we do data analysis, about 90% of the effort is getting the data into the right shape for the analysis at hand. We’re going to be employing many approaches to this task throughout the R Opus, but here we’ll do a quick preparatory analysis with our two untidy data frames.

The pivot_longer() function in dplyr is built to take data in the many-observations-per-row format (often called “wide” data) and bring it into a longer, “tidier” representation that is often easier to work with. For the descriptive_data, a natural format that would be easier to work with is one in which all the descriptors are pivoted into two columns: one labeling the descriptor by name, and the other giving the rated value. We’d do that as follows:

descriptive_data_tidy <- 
  descriptive_data %>%
  pivot_longer(cols = -c(NJ, NR, ProductName),
               names_to = "descriptor",
               values_to = "rating")

descriptive_data_tidy

## # A tibble: 6,720 × 5
##       NJ ProductName    NR descriptor      rating
##    <dbl> <chr>       <dbl> <chr>            <dbl>
##  1  1331 C_MERLOT        7 Red_berry          5.1
##  2  1331 C_MERLOT        7 Dark_berry         5.8
##  3  1331 C_MERLOT        7 Jam                2.1
##  4  1331 C_MERLOT        7 Dried_fruit        4.7
##  5  1331 C_MERLOT        7 Artificial_frui    1  
##  6  1331 C_MERLOT        7 Chocolate          2.9
##  7  1331 C_MERLOT        7 Vanilla            5  
##  8  1331 C_MERLOT        7 Oak                5  
##  9  1331 C_MERLOT        7 Burned             1.4
## 10  1331 C_MERLOT        7 Leather            2.3
## # ℹ 6,710 more rows
…
We can do the same thing with our consumer_data. In this case, we have 5 ID variables, and 8 observations, one for each wine. Let’s do the same thing with pivot_longer:

consumer_data_tidy <- 
  consumer_data %>%
  
# We can use ":" to select a continuous range of columns
  
  pivot_longer(cols = C_MERLOT:I_REFOSCO,
               names_to = "wine",
               values_to = "rating")

consumer_data_tidy

## # A tibble: 848 × 7
##    Judge `Wine Frequency` `IT frequency` Gender   Age wine        rating
##    <dbl>            <dbl>          <dbl>  <dbl> <dbl> <chr>        <dbl>
##  1     1                2              3      2    22 C_MERLOT         5
##  2     1                2              3      2    22 C_SYRAH          4
##  3     1                2              3      2    22 C_ZINFANDEL      3
##  4     1                2              3      2    22 C_REFOSCO        8
##  5     1                2              3      2    22 I_MERLOT         7
##  6     1                2              3      2    22 I_SYRAH          2
##  7     1                2              3      2    22 I_PRIMITIVO      4
##  8     1                2              3      2    22 I_REFOSCO        6
##  9     2                3              4      2    21 C_MERLOT         8
## 10     2                3              4      2    21 C_SYRAH          5
## # ℹ 838 more rows
…
