Chapter 4 MANOVA (Multivariate Analysis of Variance) | The R Opus v2
…
Let’s take a quick look at subject 1404’s ratings:

descriptive_data %>%
  filter(NJ == "1404")

## # A tibble: 24 × 23
##    NJ    ProductName NR    Red_berry Dark_berry   Jam Dried_fruit
##    <fct> <fct>       <fct>     <dbl>      <dbl> <dbl>       <dbl>
##  1 1404  C_MERLOT    7           4          5.6   0           0  
##  2 1404  C_SYRAH     7           0.5        7.5   0           4.4
##  3 1404  C_ZINFANDEL 7           4.9        7.9   0.5         1.9
##  4 1404  C_REFOSCO   7           0.3        1.8   0           0  
##  5 1404  I_MERLOT    7           0.7        5.1   0           5.2
##  6 1404  I_SYRAH     7           5.2        4     4           2.9
##  7 1404  I_PRIMITIVO 7           6.4        8.8   7.6         1  
##  8 1404  I_REFOSCO   7           3.7        4.8   3.8         3.9
##  9 1404  C_MERLOT    8           3.4        8.3   3.5         4.6
## 10 1404  C_SYRAH     8           3          8.8   3           4.3
## # ℹ 14 more rows
## # ℹ 16 more variables: Artificial_frui <dbl>, Chocolate <dbl>, Vanilla <dbl>,
## #   Oak <dbl>, Burned <dbl>, Leather <dbl>, Earthy <dbl>, Spicy <dbl>,
## #   Pepper <dbl>, Grassy <dbl>, Medicinal <dbl>, `Band-aid` <dbl>, Sour <dbl>,
## #   Bitter <dbl>, Alcohol <dbl>, Astringent <dbl>
…
